id,name,model_id:id,group_id:id,perm_read,perm_write,perm_create,perm_unlink
access_spa_reservation_user,spa.reservation.user,model_spa_reservation,spa.group_spa_user,1,1,1,0
access_spa_reservation_line_user,spa.reservation.line.user,model_spa_reservation_line,spa.group_spa_user,1,1,1,0
access_spa_employee_reservation_line_user,spa.employee.reservation.line.user,model_spa_employee_reservation_line,spa.group_spa_user,1,1,1,0
access_spa_reservation_manager,spa.reservation.manager,model_spa_reservation,spa.group_spa_manager,1,1,1,1
access_spa_reservation_line_manager,spa.reservation.line.manager,model_spa_reservation_line,spa.group_spa_manager,1,1,1,1
access_spa_employee_reservation_line_manager,spa.employee.reservation.line.manager,model_spa_employee_reservation_line,spa.group_spa_manager,1,1,1,1
access_quick_service_reservation_user,spa.quick.service.reservation.user,model_quick_service_reservation,spa.group_spa_user,1,1,1,0
access_quick_service_reservation_manager,spa.quick.service.reservation.manager,model_quick_service_reservation,spa.group_spa_manager,1,1,1,1
access_spa_employee_shift_timing_user,spa.employee.shift.timing.user,model_spa_employee_shift_timing,spa.group_spa_user,1,1,1,0
access_spa_employee_shift_timing_manager,spa.employee.shift.timing.manager,model_spa_employee_shift_timing,spa.group_spa_manager,1,1,1,1
