id,name,model_id:id,group_id:id,perm_read,perm_write,perm_create,perm_unlink
access_product_category,product.category.user,product.model_product_category,spa.group_spa_user,1,1,1,0
access_product_product,product.product.user,product.model_product_product,spa.group_spa_user,1,1,1,0
access_spa_employee,spa.employee.user,model_spa_employee,spa.group_spa_user,1,1,1,0
access_spa_folio,spa.folio.user,model_spa_folio,spa.group_spa_user,1,1,1,0
access_spa_service_line,spa.service.line.user,model_spa_service_line,spa.group_spa_user,1,1,1,0
acess_spa_service_type,spa.service.type.user,model_spa_service_type,spa.group_spa_user,1,1,1,0
access_spa_services,spa.sevices.user,model_spa_services,spa.group_spa_user,1,1,1,0
access_spa_order_user,spa.order.user,sale.model_sale_order,spa.group_spa_user,1,1,1,0
access_spa_order_line_user,spa.order.line.user,sale.model_sale_order_line,spa.group_spa_user,1,1,1,0
access_spa_invoice_user,account.invoice.user,account.model_account_invoice,spa.group_spa_user,1,1,1,0
access_product_category_manager,product.category.manager,product.model_product_category,spa.group_spa_manager,1,1,1,1
access_product_product_manager,product.product.manager,product.model_product_product,spa.group_spa_manager,1,1,1,1
access_spa_employee_manager,spa.employee.manager,model_spa_employee,spa.group_spa_manager,1,1,1,1
access_spa_folio_manager,spa.folio.manager,model_spa_folio,spa.group_spa_manager,1,1,1,1
access_spa_service_line_manager,spa.service.line.manager,model_spa_service_line,spa.group_spa_manager,1,1,1,1
acess_spa_service_type_manager,spa.service.type.manager,model_spa_service_type,spa.group_spa_manager,1,1,1,1
access_spa_services_manager,spa.sevices.manager,model_spa_services,spa.group_spa_manager,1,1,1,1
access_spa_order_manager_manager,spa.order.manager,sale.model_sale_order,spa.group_spa_manager,1,1,1,1
access_spa_order_line_manager,spa.order.line.manager,sale.model_sale_order_line,spa.group_spa_manager,1,1,1,0
access_spa_invoice_manager,account.invoice.manager,account.model_account_invoice,spa.group_spa_manager,1,1,1,1
